<svg xmlns="http://www.w3.org/2000/svg" viewBox="0 0 12 12">
    <path d="M6 7.574l4.813-3.008L6 1.75 1.187 4.566 6 7.574zm5.824-2.898V10.5c0 .31-.114.583-.342.82a1.083 1.083 0 0 1-.806.356H1.324c-.31 0-.579-.119-.806-.356a1.149 1.149 0 0 1-.342-.82V4.676c0-.456.182-.793.547-1.012L6 .574l5.277 3.09c.365.219.547.556.547 1.012z"/>
</svg>
